…
payload  
```

```
## # A tibble: 31 × 3
##    Booster       `Average Payload (kg)` `Number of Launches`
##    <chr>                          <dbl>                <int>
##  1 F9 B4 B1041.1                   9600                    1
##  2 F9 FT B1029.1                   9600                    1
##  3 F9 FT B1036.1                   9600                    1
##  4 F9 FT B1036.2                   9600                    1
##  5 F9 FT B1037                     6761                    1
##  6 F9 B4 B1044                     6092                    1
##  7 F9 FT B1034                     6070                    1
##  8 F9 FT B1030                     5600                    1
##  9 F9 FT B1021.2                   5300                    1
## 10 F9 FT B1020                     5271                    1
## # ℹ 21 more rows
```
…
